id,name,model_id:id,group_id:id,perm_read,perm_write,perm_create,perm_unlink
chilean_invoice_config_manager,chilean_invoice_config_manager,model_chilean_config_settings,account.group_account_manager,1,1,1,1
chilean_invoice_config,chilean_invoice_config,model_chilean_config_settings,account.group_account_invoice,1,1,0,0
